#Command: "C:\Program Files (x86)\Microsoft SDKs\Windows\v7.0A\bin\mt.exe" @C:\Users\Jacek\AppData\Local\Temp\tmp8889e7bfc2b34d0eb2905ae8c9924f6d.rsp
^C:\USERS\JACEK\DOCUMENTS\VISUAL STUDIO 2010\PROJECTS\ALLEGROTEST\ALLEGROTEST\DEBUG\ALLEGROTEST.EXE.INTERMEDIATE.MANIFEST
C:\WINDOWS\GLOBALIZATION\SORTING\SORTDEFAULT.NLS
C:\USERS\JACEK\APPDATA\LOCAL\TEMP\F62B2CA4DEB74858B1FE797C82C6D119.TMP
#Command: "C:\Program Files (x86)\Microsoft SDKs\Windows\v7.0A\bin\mt.exe" @C:\Users\Jacek\AppData\Local\Temp\tmp83831216ef5744f0971e6c5a2d55162d.rsp
^C:\USERS\JACEK\DOCUMENTS\VISUAL STUDIO 2010\PROJECTS\ALLEGROTEST\ALLEGROTEST\DEBUG\ALLEGROTEST.EXE.INTERMEDIATE.MANIFEST
C:\WINDOWS\GLOBALIZATION\SORTING\SORTDEFAULT.NLS
C:\USERS\JACEK\APPDATA\LOCAL\TEMP\A863AD2528854D3488A58A57D6F8E77D.TMP
#Command: "C:\Program Files (x86)\Microsoft SDKs\Windows\v7.0A\bin\mt.exe" @C:\Users\Jacek\AppData\Local\Temp\tmp1490a58369204109a9a743ddccfe74a9.rsp
^C:\USERS\JACEK\DOCUMENTS\VISUAL STUDIO 2010\PROJECTS\ALLEGROTEST\ALLEGROTEST\DEBUG\ALLEGROTEST.EXE.INTERMEDIATE.MANIFEST
C:\WINDOWS\GLOBALIZATION\SORTING\SORTDEFAULT.NLS
C:\USERS\JACEK\APPDATA\LOCAL\TEMP\4113FAAAB84246729186F381C9E69747.TMP
#Command: "C:\Program Files (x86)\Microsoft SDKs\Windows\v7.0A\bin\mt.exe" @C:\Users\Jacek\AppData\Local\Temp\tmp570eab120f5f4943a2f30afb52a0381d.rsp
^C:\USERS\JACEK\DOCUMENTS\VISUAL STUDIO 2010\PROJECTS\ALLEGROTEST\ALLEGROTEST\DEBUG\ALLEGROTEST.EXE.INTERMEDIATE.MANIFEST
C:\WINDOWS\GLOBALIZATION\SORTING\SORTDEFAULT.NLS
C:\USERS\JACEK\APPDATA\LOCAL\TEMP\78BCEDD60E64409B8330E4971A077B9C.TMP
#Command: "C:\Program Files (x86)\Microsoft SDKs\Windows\v7.0A\bin\mt.exe" @C:\Users\Jacek\AppData\Local\Temp\tmp29d6322d59b84f6387da8254e9bbb23c.rsp
^C:\USERS\JACEK\DOCUMENTS\VISUAL STUDIO 2010\PROJECTS\ALLEGROTEST\ALLEGROTEST\DEBUG\ALLEGROTEST.EXE.INTERMEDIATE.MANIFEST
C:\WINDOWS\GLOBALIZATION\SORTING\SORTDEFAULT.NLS
C:\USERS\JACEK\APPDATA\LOCAL\TEMP\9AA2257783DD41B0BC1907B0881E85D1.TMP
#Command: "C:\Program Files (x86)\Microsoft SDKs\Windows\v7.0A\bin\mt.exe" @C:\Users\Jacek\AppData\Local\Temp\tmpa72230eb9a054d0e86e786a300465069.rsp
^C:\USERS\JACEK\DOCUMENTS\VISUAL STUDIO 2010\PROJECTS\ALLEGROTEST\ALLEGROTEST\DEBUG\ALLEGROTEST.EXE.INTERMEDIATE.MANIFEST
C:\WINDOWS\GLOBALIZATION\SORTING\SORTDEFAULT.NLS
C:\USERS\JACEK\APPDATA\LOCAL\TEMP\8F0CDB3585FA4BC48BF8C498995F1EA3.TMP
#Command: "C:\Program Files (x86)\Microsoft SDKs\Windows\v7.0A\bin\mt.exe" @C:\Users\Jacek\AppData\Local\Temp\tmp970be17608604f49afcdb2902b9a5331.rsp
^C:\USERS\JACEK\DOCUMENTS\VISUAL STUDIO 2010\PROJECTS\ALLEGROTEST\ALLEGROTEST\DEBUG\ALLEGROTEST.EXE.INTERMEDIATE.MANIFEST
C:\WINDOWS\GLOBALIZATION\SORTING\SORTDEFAULT.NLS
C:\USERS\JACEK\APPDATA\LOCAL\TEMP\E747A5D53F324F958E5C929DC5CFF8B0.TMP
#Command: "C:\Program Files (x86)\Microsoft SDKs\Windows\v7.0A\bin\mt.exe" @C:\Users\Jacek\AppData\Local\Temp\tmp809861f397254cf1beafb4a103f623a3.rsp
^C:\USERS\JACEK\DOCUMENTS\VISUAL STUDIO 2010\PROJECTS\ALLEGROTEST\ALLEGROTEST\DEBUG\ALLEGROTEST.EXE.INTERMEDIATE.MANIFEST
C:\WINDOWS\GLOBALIZATION\SORTING\SORTDEFAULT.NLS
C:\USERS\JACEK\APPDATA\LOCAL\TEMP\E608415FA3D64AF3BA126EC74FD84413.TMP
#Command: "C:\Program Files (x86)\Microsoft SDKs\Windows\v7.0A\bin\mt.exe" @C:\Users\Jacek\AppData\Local\Temp\tmp1c6c041466ff497a83efb85a76de4ab0.rsp
^C:\USERS\JACEK\DOCUMENTS\VISUAL STUDIO 2010\PROJECTS\ALLEGROTEST\ALLEGROTEST\DEBUG\ALLEGROTEST.EXE.INTERMEDIATE.MANIFEST
C:\WINDOWS\GLOBALIZATION\SORTING\SORTDEFAULT.NLS
C:\USERS\JACEK\APPDATA\LOCAL\TEMP\CD49063DBFE04B9BBD333D6938866D73.TMP
#Command: "C:\Program Files (x86)\Microsoft SDKs\Windows\v7.0A\bin\mt.exe" @C:\Users\Jacek\AppData\Local\Temp\tmp14322d762715474ba6c661afd8f6cafe.rsp
^C:\USERS\JACEK\DOCUMENTS\VISUAL STUDIO 2010\PROJECTS\ALLEGROTEST\ALLEGROTEST\DEBUG\ALLEGROTEST.EXE.INTERMEDIATE.MANIFEST
C:\WINDOWS\GLOBALIZATION\SORTING\SORTDEFAULT.NLS
C:\USERS\JACEK\APPDATA\LOCAL\TEMP\1E6CF3A233564B6391C2A0EC5D0E249A.TMP
#Command: "C:\Program Files (x86)\Microsoft SDKs\Windows\v7.0A\bin\mt.exe" @C:\Users\Jacek\AppData\Local\Temp\tmp80fb478a31544030bdce582b43b17147.rsp
^C:\USERS\JACEK\DOCUMENTS\VISUAL STUDIO 2010\PROJECTS\ALLEGROTEST\ALLEGROTEST\DEBUG\ALLEGROTEST.EXE.INTERMEDIATE.MANIFEST
C:\WINDOWS\GLOBALIZATION\SORTING\SORTDEFAULT.NLS
C:\USERS\JACEK\APPDATA\LOCAL\TEMP\38C68978283F403F84DDCA54F22410F6.TMP
#Command: "C:\Program Files (x86)\Microsoft SDKs\Windows\v7.0A\bin\mt.exe" @C:\Users\Jacek\AppData\Local\Temp\tmp31991d7253f743d0ba2ade0153a42b87.rsp
^C:\USERS\JACEK\DOCUMENTS\VISUAL STUDIO 2010\PROJECTS\ALLEGROTEST\ALLEGROTEST\DEBUG\ALLEGROTEST.EXE.INTERMEDIATE.MANIFEST
C:\WINDOWS\GLOBALIZATION\SORTING\SORTDEFAULT.NLS
C:\USERS\JACEK\APPDATA\LOCAL\TEMP\D554AB7EC8E246969CECFCEC9C8566B0.TMP
#Command: "C:\Program Files (x86)\Microsoft SDKs\Windows\v7.0A\bin\mt.exe" @C:\Users\Jacek\AppData\Local\Temp\tmp6ae4236b1d5b4df3b256f0bad9b0febe.rsp
^C:\USERS\JACEK\DOCUMENTS\VISUAL STUDIO 2010\PROJECTS\ALLEGROTEST\ALLEGROTEST\DEBUG\ALLEGROTEST.EXE.INTERMEDIATE.MANIFEST
C:\WINDOWS\GLOBALIZATION\SORTING\SORTDEFAULT.NLS
C:\USERS\JACEK\APPDATA\LOCAL\TEMP\213DC58650F04778BBA0286845002833.TMP
#Command: "C:\Program Files (x86)\Microsoft SDKs\Windows\v7.0A\bin\mt.exe" @C:\Users\Jacek\AppData\Local\Temp\tmp58da85e3ee7145b987cb143945bd70cf.rsp
^C:\USERS\JACEK\DOCUMENTS\VISUAL STUDIO 2010\PROJECTS\ALLEGROTEST\ALLEGROTEST\DEBUG\ALLEGROTEST.EXE.INTERMEDIATE.MANIFEST
C:\WINDOWS\GLOBALIZATION\SORTING\SORTDEFAULT.NLS
C:\USERS\JACEK\APPDATA\LOCAL\TEMP\228D756033094AB6A550781740F6BBA7.TMP
#Command: "C:\Program Files (x86)\Microsoft SDKs\Windows\v7.0A\bin\mt.exe" @C:\Users\Jacek\AppData\Local\Temp\tmp8296a29dafd942419d319c550c7a12f0.rsp
^C:\USERS\JACEK\DOCUMENTS\VISUAL STUDIO 2010\PROJECTS\ALLEGROTEST\ALLEGROTEST\DEBUG\ALLEGROTEST.EXE.INTERMEDIATE.MANIFEST
C:\WINDOWS\GLOBALIZATION\SORTING\SORTDEFAULT.NLS
C:\USERS\JACEK\APPDATA\LOCAL\TEMP\3CB8132CD424488F96B274EFBCE40398.TMP
#Command: "C:\Program Files (x86)\Microsoft SDKs\Windows\v7.0A\bin\mt.exe" @C:\Users\Jacek\AppData\Local\Temp\tmp50a3d1ada7704fd3bc858a9f986a3121.rsp
^C:\USERS\JACEK\DOCUMENTS\VISUAL STUDIO 2010\PROJECTS\ALLEGROTEST\ALLEGROTEST\DEBUG\ALLEGROTEST.EXE.INTERMEDIATE.MANIFEST
C:\WINDOWS\GLOBALIZATION\SORTING\SORTDEFAULT.NLS
C:\USERS\JACEK\APPDATA\LOCAL\TEMP\E57377D144DE45B59E68E7D396D0A7B8.TMP
#Command: "C:\Program Files (x86)\Microsoft SDKs\Windows\v7.0A\bin\mt.exe" @C:\Users\Jacek\AppData\Local\Temp\tmpc389d7d9656449318e7649644a7cb844.rsp
^C:\USERS\JACEK\DOCUMENTS\VISUAL STUDIO 2010\PROJECTS\ALLEGROTEST\ALLEGROTEST\DEBUG\ALLEGROTEST.EXE.INTERMEDIATE.MANIFEST
C:\WINDOWS\GLOBALIZATION\SORTING\SORTDEFAULT.NLS
C:\USERS\JACEK\APPDATA\LOCAL\TEMP\83A0F2A34A754DC994E7F1CDFC899146.TMP
#Command: "C:\Program Files (x86)\Microsoft SDKs\Windows\v7.0A\bin\mt.exe" @C:\Users\Jacek\AppData\Local\Temp\tmp31ac2705ffdb4df19125de788f3fbc62.rsp
^C:\USERS\JACEK\DOCUMENTS\VISUAL STUDIO 2010\PROJECTS\ALLEGROTEST\ALLEGROTEST\DEBUG\ALLEGROTEST.EXE.INTERMEDIATE.MANIFEST
C:\WINDOWS\GLOBALIZATION\SORTING\SORTDEFAULT.NLS
C:\USERS\JACEK\APPDATA\LOCAL\TEMP\B768565384BB4104B10B0FF49F0EF688.TMP
#Command: "C:\Program Files (x86)\Microsoft SDKs\Windows\v7.0A\bin\mt.exe" @C:\Users\Jacek\AppData\Local\Temp\tmp1f8235411ecd4549b09b6897d0858086.rsp
^C:\USERS\JACEK\DOCUMENTS\VISUAL STUDIO 2010\PROJECTS\ALLEGROTEST\ALLEGROTEST\DEBUG\ALLEGROTEST.EXE.INTERMEDIATE.MANIFEST
C:\WINDOWS\GLOBALIZATION\SORTING\SORTDEFAULT.NLS
C:\USERS\JACEK\APPDATA\LOCAL\TEMP\6DEA7F0E43AC43799744A9353DDF1427.TMP
#Command: "C:\Program Files (x86)\Microsoft SDKs\Windows\v7.0A\bin\mt.exe" @C:\Users\Jacek\AppData\Local\Temp\tmpf3e7ffa5d937491788abdd1f766a78ff.rsp
^C:\USERS\JACEK\DOCUMENTS\VISUAL STUDIO 2010\PROJECTS\ALLEGROTEST\ALLEGROTEST\DEBUG\ALLEGROTEST.EXE.INTERMEDIATE.MANIFEST
C:\WINDOWS\GLOBALIZATION\SORTING\SORTDEFAULT.NLS
C:\USERS\JACEK\APPDATA\LOCAL\TEMP\64AEA65E21C74B28AD54B00774644811.TMP
#Command: "C:\Program Files (x86)\Microsoft SDKs\Windows\v7.0A\bin\mt.exe" @C:\Users\Jacek\AppData\Local\Temp\tmpf26d308e9651439586528066e51c300e.rsp
^C:\USERS\JACEK\DOCUMENTS\VISUAL STUDIO 2010\PROJECTS\ALLEGROTEST\ALLEGROTEST\DEBUG\ALLEGROTEST.EXE.INTERMEDIATE.MANIFEST
C:\WINDOWS\GLOBALIZATION\SORTING\SORTDEFAULT.NLS
C:\USERS\JACEK\APPDATA\LOCAL\TEMP\172BAD9A23184F67954F1BA6D80F0DF7.TMP
#Command: "C:\Program Files (x86)\Microsoft SDKs\Windows\v7.0A\bin\mt.exe" @C:\Users\Jacek\AppData\Local\Temp\tmp35f01db10d414d5eb79c6b8491b2862c.rsp
^C:\USERS\JACEK\DOCUMENTS\VISUAL STUDIO 2010\PROJECTS\ALLEGROTEST\ALLEGROTEST\DEBUG\ALLEGROTEST.EXE.INTERMEDIATE.MANIFEST
C:\WINDOWS\GLOBALIZATION\SORTING\SORTDEFAULT.NLS
C:\USERS\JACEK\APPDATA\LOCAL\TEMP\F8B5FC2D6A394DA2BD113928A4E29506.TMP
#Command: "C:\Program Files (x86)\Microsoft SDKs\Windows\v7.0A\bin\mt.exe" @C:\Users\Jacek\AppData\Local\Temp\tmp3868944b86aa4a189199ddc75ec6e375.rsp
^C:\USERS\JACEK\DOCUMENTS\VISUAL STUDIO 2010\PROJECTS\ALLEGROTEST\ALLEGROTEST\DEBUG\ALLEGROTEST.EXE.INTERMEDIATE.MANIFEST
C:\WINDOWS\GLOBALIZATION\SORTING\SORTDEFAULT.NLS
C:\USERS\JACEK\APPDATA\LOCAL\TEMP\8DEBD69354EB4C369D3EE93BBD97B672.TMP
#Command: "C:\Program Files (x86)\Microsoft SDKs\Windows\v7.0A\bin\mt.exe" @C:\Users\Jacek\AppData\Local\Temp\tmpe10f3e5bc1464bc8bf61c19da94b0b22.rsp
^C:\USERS\JACEK\DOCUMENTS\VISUAL STUDIO 2010\PROJECTS\ALLEGROTEST\ALLEGROTEST\DEBUG\ALLEGROTEST.EXE.INTERMEDIATE.MANIFEST
C:\WINDOWS\GLOBALIZATION\SORTING\SORTDEFAULT.NLS
C:\USERS\JACEK\APPDATA\LOCAL\TEMP\2EE573EDFF3E451D90B42536ED3170AF.TMP
#Command: "C:\Program Files (x86)\Microsoft SDKs\Windows\v7.0A\bin\mt.exe" @C:\Users\Jacek\AppData\Local\Temp\tmp186dfc5b35b04cca9095ba99f046a4e2.rsp
^C:\USERS\JACEK\DOCUMENTS\VISUAL STUDIO 2010\PROJECTS\ALLEGROTEST\ALLEGROTEST\DEBUG\ALLEGROTEST.EXE.INTERMEDIATE.MANIFEST
C:\WINDOWS\GLOBALIZATION\SORTING\SORTDEFAULT.NLS
C:\USERS\JACEK\APPDATA\LOCAL\TEMP\6619D831AF80410E852AF0EF97C4E843.TMP
#Command: "C:\Program Files (x86)\Microsoft SDKs\Windows\v7.0A\bin\mt.exe" @C:\Users\Jacek\AppData\Local\Temp\tmp41c5e45ca1584b588fbcb857d5744692.rsp
^C:\USERS\JACEK\DOCUMENTS\VISUAL STUDIO 2010\PROJECTS\ALLEGROTEST\ALLEGROTEST\DEBUG\ALLEGROTEST.EXE.INTERMEDIATE.MANIFEST
C:\WINDOWS\GLOBALIZATION\SORTING\SORTDEFAULT.NLS
C:\USERS\JACEK\APPDATA\LOCAL\TEMP\6A551400DEFA4075968EFD9C299B7772.TMP
